{
  "prepare_queue": {
    "installed": [],
    "uninstalled": []
  },
  "config_munge": {
    "files": {}
  },
  "installed_plugins": {
    "com-badrit-base64": {
      "PACKAGE_NAME": "com.RTF.RootsFolio"
    },
    "cordova-plugin-add-swift-support": {
      "PACKAGE_NAME": "com.RTF.RootsFolio"
    },
    "cordova-plugin-camera": {
      "PACKAGE_NAME": "com.RTF.RootsFolio"
    },
    "cordova-plugin-datepicker": {
      "PACKAGE_NAME": "com.RTF.RootsFolio"
    },
    "cordova-plugin-device": {
      "PACKAGE_NAME": "com.RTF.RootsFolio"
    },
    "cordova-plugin-facebook4": {
      "APP_ID": "385020845371973",
      "APP_NAME": "RootsFolio",
      "PACKAGE_NAME": "com.RTF.RootsFolio"
    },
    "cordova-plugin-file": {
      "PACKAGE_NAME": "com.RTF.RootsFolio"
    },
    "cordova-plugin-file-transfer": {
      "PACKAGE_NAME": "com.RTF.RootsFolio"
    },
    "cordova-plugin-filepath": {
      "PACKAGE_NAME": "com.RTF.RootsFolio"
    },
    "cordova-plugin-geolocation": {
      "PACKAGE_NAME": "com.RTF.RootsFolio"
    },
    "cordova-plugin-googleplus": {
      "REVERSED_CLIENT_ID": "com.googleusercontent.apps.974056913344-1fn5t4cm7q2fsc6daoqc9u4cv5m6ri6a",
      "PACKAGE_NAME": "com.RTF.RootsFolio"
    },
    "cordova-plugin-ionic-keyboard": {
      "PACKAGE_NAME": "com.RTF.RootsFolio"
    },
    "cordova-plugin-media-capture": {
      "PACKAGE_NAME": "com.RTF.RootsFolio"
    },
    "cordova-plugin-splashscreen": {
      "PACKAGE_NAME": "com.RTF.RootsFolio"
    },
    "cordova-plugin-statusbar": {
      "PACKAGE_NAME": "com.RTF.RootsFolio"
    },
    "cordova-plugin-whitelist": {
      "PACKAGE_NAME": "com.RTF.RootsFolio"
    },
    "phonegap-plugin-push": {
      "PACKAGE_NAME": "com.RTF.RootsFolio"
    },
    "cordova-plugin-ionic-webview": {
      "PACKAGE_NAME": "com.RTF.RootsFolio"
    },
    "cordova-plugin-photo-library": {
      "PHOTO_LIBRARY_USAGE_DESCRIPTION": "To choose photos",
      "PACKAGE_NAME": "com.RTF.RootsFolio"
    },
    "cordova-plugin-customurlscheme": {
      "URL_SCHEME": "rootsfolio",
      "PACKAGE_NAME": "com.RTF.RootsFolio"
    },
    "cordova-plugin-x-socialsharing": {
      "PACKAGE_NAME": "com.RTF.RootsFolio"
    },
    "cordova-clipboard": {
      "PACKAGE_NAME": "com.RTF.RootsFolio"
    }
  },
  "dependent_plugins": {
    "es6-promise-plugin": {
      "PACKAGE_NAME": "com.RTF.RootsFolio"
    }
  }
}